{
  "ISBN": "%1%",
  "Title": "%2%",
  "Author": {
    "FirstName": "%3%",
    "MiddleName": "%4%",
    "LastName": "%5%",
    "YearBorn": %6%,
    "YearDied": %7%,
    "BooksWritten": %8%
  },
  "Year": %9%,
  "Edition": %10%,
  "Publisher": {
    "Name": "%11%",
    "YearStarted": %12%,
    "YearEnded": %13%,
    "BooksPublished": %14%
  },
  "Pages": %15%,
  "Category": "%16%",
  "PDF": %17%,
  "Owned": %18%
},
